module bitbucket.org/lkalneus/promptui

go 1.12

require (
	github.com/alecthomas/gometalinter v1.2.1
	github.com/alecthomas/units v0.0.0-20151022065526-2efee857e7cf
	github.com/chzyer/readline v0.0.0-20171003145950-6a4bc7b4feae
	github.com/client9/misspell v0.3.0
	github.com/google/shlex v0.0.0-20150127133951-6f45313302b9
	github.com/gordonklaus/ineffassign v0.0.0-20170825171107-da3d65debb9b
	github.com/juju/ansiterm v0.0.0-20161107204639-35c59b9e0fe2
	github.com/kisielk/gotool v0.0.0-20170828042310-d6ce6262d87e
	github.com/lunixbochs/vtclean v0.0.0-20170504063817-d14193dfc626
	github.com/mattn/go-colorable v0.0.9
	github.com/mattn/go-isatty v0.0.3
	github.com/nicksnyder/go-i18n v1.9.0
	github.com/pelletier/go-toml v1.0.1
	github.com/tsenart/deadcode v0.0.0-20160724212837-210d2dc333e9
	golang.org/x/lint v0.0.0-20190409202823-959b441ac422
	golang.org/x/sys v0.0.0-20190215142949-d0b11bdaac8a
	golang.org/x/tools v0.0.0-20190311212946-11955173bddd
	gopkg.in/alecthomas/kingpin.v3-unstable v3.0.0-20171010053543-63abe20a23e2
	gopkg.in/yaml.v2 v2.0.0-20170812160011-eb3733d160e7
	honnef.co/go/tools v0.0.0-20170921140605-e5147431c7c0
)
